:18400000C30940C3FA4CC31E402100D336002C20FB3E80E0263E77E0A8
:18401800243EFFE025C92168D32AA72014CD3F40CD7C45AFEA60D3EA70
:1840300068D3EA70D3EA78D3C977CD634118E91193D32178D32AFE011D
:1840480028067EFE01280CC93E01EA79D3216840C372401A3D12C0AF2D
:18406000EA79D3216D40180A3B8007C002004202C00406040E202AE252
:184078000C0520FA7E12C9095256566A5E7459AE5AA75CB35DEE5E3C6D
:184090005F00506460C2602361A9627564A57210663666BF526266A673
:1840A8007B77672E4BF1723F739E731674A8744675927500763D770076
:1840C000702C70F0705871A671D4713C72D378234B93760E637969DFB5
:1840D80069216A096C334C6A5E7459B766806C057A5A7A287B7B65284C
:1840F0007CC9589C67496CAC52FF7C4B7D047E1C3DCB274F0600094EA9
:18410800234669607CC9C50E302AE20C79FE4020F8C1C9AFEA79D3EAE5
:184120004FD3EA98D3EA93D3EAC9D3EAA3D33E08E0213E80E023C9FA0F
:1841380079D3FE05CA184DFE0CCA184DFE1ACA184DFE24CA184DFE2AF8
:18415000CA184DFE2ECA184DFE3FCA184DCD1B41C3184D47FACED3A787
:18416800C22B4078FEFF28C7FE113003C32B40FE213004C6F0180FFE10
:18418000313004C6F01807FE41DA2B40C6E02B2232FACAD3EACBD32AFB
:18419800EACAD347217F40E67FCDFF40CDBB43C354430100FFFF0000CC
:1841B0000100FFFF00000100FFFF00000100FFFF00000100FFFF0000FB
:1841C8000100FFFF00000100FFFF00000100FFFF00000100FFFF0000E3
:1841E0000100FFFF00000100FFFF00000100FFFF00000100FFFF0000CB
:1841F8000100FFFF00000100FFFF00000100FFFF00000100FFFF0000B3
:184210000100FFFF00000100FFFF00000100FFFF00000100FFFF00009A
:184228000100FFFF00000100FFFF00000100FFFF00000100FFFF000082
:184240000100FFFF00000100FFFF00000100FFFF00000100FFFF00006A
:184258000100FFFF00000100FFFF00000100FFFF00000100FFFF000052
:184270000100FFFF00000100FFFF00000100FFFF00000100FFFF00003A
:184288000100FFFF00000100FFFF00000100FFFF00000100FFFF000022
:1842A0000100FFFF00000100FFFF00000100FFFF00000100FFFF00000A
:1842B8000100FFFF00000100FFFF00000100FFFF00000100FFFF0000F2
:1842D0000100FFFF00000100FFFF00000100FFFF00000100FFFF0000DA
:1842E8000100FFFF00000100FFFF00000100FFFF00000100FFFF0000C2
:184300000100FFFF00000100FFFF00000100FFFF00000100FFFF0000A9
:184318000100FFFF00000100FFFF00000100FFFF0000FAE7D3A7CA3A31
:1843300047AFE01AEAE7D3E5FA36D36FFA37D367C50E302AE20C79FE8D
:184348004020F83E80E01AC1E1C33A47FA69D321AA413D28082323234F
:1843600023232318F50155D32A020CAF020C2A020CAF020C2A02E0258B
:184378000C2A020C2A020C2A02C92155D32AFE01C8342ABEC02D360043
:184390002C2C342AE6034D44A7280B0CFE0128060CFE0228010C0AE0A7
:1843A80025C92A4F7E470A121C030A12C92A121C2A12C9FA79D3FE050B
:1843C000281BFE0C2817FE1A2813FE24280FFE2A280BFE2E2807FE3FBA
:1843D8002803CD1B41CD254D1100D306002A121CCDB5431110D3CDB5BD
:1843F000431120D3CDB5431130D3CDB5431140D3CDB5432110D31114BE
:18440800D3CDAA432120D31124D3CDAA432130D31134D3CDAA432140E2
:18442000D31144D3CDAA430110042112D3360179856F0520F8AFEA1E3C
:18443800D3EA2ED3EA3ED3C9E5FA71D3A72008AFE01A6B62CD0E41E185
:18445000182ACD8244CD97445FCD8244CD974457CD8244CD97444F2C30
:184468002C732C722C712D2D2D2DE52150D37EE1FE0328C4CD8244C3E3
:18448000A045D52A5F3A57137B227A32D1C9D52A5F3A57131318F12A12
:184498004F3A470A47C9E11831FA50D3FE032010FA38D3CB7F28097EAC
:1844B000FE0620043E40E01CE57DC6096F7EA720DD7DC6046FCB7E2071
:1844C800D5E1CD6D47E5CDF147E12D2DC34D472D2D2D2DCD8E447DC693
:1844E000045F54CDAA43FE00281FFEFF28042CC39E452DE5CD8E44CD95
:1844F80097445FCD8244CD974457E17B227A3218D5FACAD3FE15CA4F06
:18451000482169D33600CD3741C9CD8244CD9744EA01D3CD8244CD97BA
:1845280044EA02D31809CD8244CD9744EA00D3CD82441864CD8244CDF0
:184540009744E57DC60B6F4E78B177444D0D0DE12A5F3A57137B227A28
:18455800327A020D7B021840E57DC60B6F7E357EE67F280D444D0D0DA3
:184570000DE10A220C0A321827E118BB2169D37EA7C8FACED3A7C22B65
:1845880040CD82433E01EA50D32110D32C2AA7CAD24435C2A1442C2CE8
:1845A000CD9744FE00CAD744FE9DCA5244FE9ECA1A45FE9FCA2E45FEE0
:1845B8009BCA3C45FE9CCA6045FE99CA6948FE9ACA7448FE94CAB34875
:1845D000FE97CAE848FE98CAF748FE96CA5B48FE95CA6648E6F0FEA025
:1845E800204D78E60F4F0600E51101D31A6F1C1A67097EE1E5572C2CA0
:184600002C7EE6F020037A18255F7AF5CB3FCB23380857CB3FCB2338BB
:1846180001824FA720020E021150D31A3D5F16002107D31971F1E12D5B
:1846300022CD8244CD9744FA50D3FE042838D511B0D3CD3749AF121C03
:184648001211B6D3CD37491CAF12FA50D3FE03201C119ED31AA72807B8
:184660003E0112AFEA9FD311D9D31AA728073E0112AFEADAD3D1480683
:1846780000CD8244FA50D3FE04CAB846E57DC6056F5D542C2C79FE0193
:1846900028213600FA00D3A7280C6F2600CB7D280226FF09444D21BA4A
:1846A80049092A121C7E12E1C3E9463601E11831E579FEFF281811469A
:1846C000D3214C4A092A121C7BFE4B20F80E202144D306001841FA4F0D
:1846D800D3CB7FC248473E01EA78D3CD3F40C34847E50600FA50D3FE44
:1846F000012821FE0228190E1AFA3FD3CB7F2005AFE23E80E20C2C2CEF
:184708002C2C2A5F1600180E0E1618030E100C2C2C2A5F2C2A57E52C74
:184720002C2AA728021E082C2C36002C7EE1CB7F2016FA50D3FE03CAB3
:184738002A437AB0E20C7BE20C2AE20C7EF680E2E12D3A322D1150D3B2
:184750001AFE0428093C123E10856FC39445211ED334212ED334213EDD
:18476800D334C9E1C9E57DC6066F7EE60F2818EA51D3FA50D30E13FE25
:1847800001284E0E18FE0228480E1DFE032842FA50D3FE04CA6B4711D2
:18479800B6D3CD37491AA7CAB847FA50D30E13FE01CA00490E18FE0233
:1847B000CA00490E1DC30049FA50D3FE03C26B47FA9ED3A7C27D48FA82
:1847C800D9D3A7C2BE48C36B472C2A5F7EE60F57D57DC6046F46FA51AE
:1847E000D3FE01CA4D4921FFFFD119CD2649C38F47FA1BD3A72021FAE7
:1847F80017D3A7281BE60F472107D3FA1ED3BE200F0E12111AD3FA1F8F
:18481000D3CB7F2003CD3C48FA2BD3A7C0FA27D3A7C8E60F472108D305
:18482800FA2ED3BEC0FA2FD3CB7FC00E17112AD3CD3C48C9C505480694
:184840000021104B097EC1E20C0C1AF680E2C9AFEACED3F0BFEA68D359
:18485800C31E403E01EACDD3CD8244C3A045AF18F43E01EA9ED3CD827F
:1848700044C3A045AFEAD9D3EADAD318EEFE02CA6B47019FD3CDAF48AF
:184888000E1C0640FE03281A0660FE052814FE0A28100600FE07280A43
:1848A000FE0DC26B473E02EA9ED378E2C36B470A3C02C93E01EAD9D331
:1848B800CD8244C3A045FE02CA6B4701DAD3CDAF480E1C0660FE03CA64
:1848D000AA480640FE05CAAA480620FE06C26B473E02EAD9D3C3AA48B0
:1848E80011B6D3CD37493E0112CD8244C3A04511B6D3CD3749AF18F0A7
:184900001C1AA720113C12E1E5CD1B49219CFF19CD2649C36B47CD40B9
:184918004918F13E07856F2A5F7EE60F57C911A4D3CD37497DE2120C8E
:184930001C7CE60FE212C9FA50D33DCB27835FC911A4D3CD37491A6FD0
:184948001C1A575DC9D111B0D3CD37491A3C121CFE192831FE2D282685
:184960001AA7CA8F471D1AD619CB276F2600119249192A577E5FE1E508
:18497800D5CD1B49626BD119CD2649C38F471D3E19121C18D83E0112B2
:1849900018D300000000000100010002000200000000FFFFFFFFFFFE25
:1849A800FFFE00000001000200010000FFFFFFFEFFFF000F2C009C0026
:1849C00006016B01C90123027702C602120356039B03DA0316044E04E7
:1849D8008304B504E50411053B0563058905AC05CE05ED050A0627069F
:1849F00042065B06720689069E06B206C406D606E706F70606071407EB
:184A080021072D07390744074F07590762076B0774077B0783078A0706
:184A2000900797079D07A207A707AC07B107B607BA07BE07C107C5070C
:184A3800C807CB07CE07D107D407D607D907DB07DD07DF0700000000D4
:184A500000C009003834C019003833C046001310C02300204080510098
:184A6800200780A100001880F20000188081003A10C080000010C0579A
:184A8000000060801000001080010204081020060C1801010101013000
:184A98000103060C18300912240204080101480204081020400C18303F
:184AB00002050301016003050A1428500F1E3C02081002017803060CD1
:184AC80018306012244803081002049003070E1C3870152A5404091271
:184AE0000201A80408102040801830600402010100C00409122448908C
:184AF8001B366C050C181806D8050A142850A01E3C780501010101F0C4
:184B1000103222476020001D4BFFFF174B9B20AE019C0000C54A3B4BFF
:184B2800434B4B4B534B00C54A394B414B494B514B594B604BFFFF3BDC
:184B40004B824B924BFFFF434B144C194CFFFF4B4B254C2A4CFFFF534B
:184B58004BA501A801AA01009D1000809B04A17C766E649C9B047E789E
:184B700070669C9B047C766E649C9B0478726A609C009D608141AA0163
:184B880056606A6066A564A301009D3400009B03A17C766E649C9D4332
:184BA00000007C766E649D6200007E7870669D4300007E7870669D34F1
:184BB80000009B027E7870669C9B027C766E649C9D4300007C766E643F
:184BD0009D6200007C766E649D82000078726A609D62000078726A6084
:184BE8009D4300009B0278726A609C00666666660000000066666666B8
:184C0000000000000022445566668888AAAACCCC04840484A501A801BA
:184C1800009DF44B20999B20A2041C9C00A501A801009B20A21AA11A55
:184C30001A9C0002B64A3E4C4C4C604C664C6C4C824C944CA64C944CFC
:184C4800FFFF404C734C824C784C944C7D4CA64C784C944CFFFF4C4CA4
:184C6000B84CFFFF604CEB4CFFFF664C9D430003A001009D4300000043
:184C78009D710000009D910000009B02A1484C4EA65CA1484C4EA65A43
:184C9000A3019C009B02A14C5052A660A14C5052A65EA3019C009B022A
:184CA800A1505456A664A1505456A662A3019C009D044C20999B02A287
:184CC00030181830181830189C9B02341C1C341C1C341C9C9B023820E2
:184CD8002038202038209C9B02341C1C341C1C341C9C009B02A11A1A65
:184CF0001AA61A9CA11A15151500AFEA79D3EA4FD3EA98D3EA93D3EABC
:184D0800C9D3EAA3D3EAE5D33E08E0213E80E0233EFFE0253E03EA552B
:184D2000D3AFEA69D3AFEA61D3EA71D3EA1FD3EA2FD3EA3FD3EA9ED3B9
:184D3800EA9FD3EAD9D3EADAD3EAB6D3EAB7D3EAB8D3EAB9D3EABAD391
:184D5000EABBD3EA94D3EA95D3EA96D3EA90D3EA91D3EA92D3EAC6D370
:184D6800EAC7D3EAC8D3EAA0D3EAA1D3EAA2D3EACDD3EAD6D3EAD7D35F
:184D8000EAD8D3EADCD3EAE7D3EAE2D3EAE3D3EAE4D33E08E012E0173A
:0C4D98003E80E014E019AFE010E01AC902
:1850000000E34A0B502F5053500000136E6F50AC6EA150A86E226EA855
:1850180050096E2A6D47514751156DB06E106D096E5151E3510000B7D1
:1850300050AC6EFF6DED50A86EF250CD6D4751096E4751156DB06EBEBE
:185048006D51512D6D186EE3510000636E0051AC6E3151A86E546E381F
:1850600051726E276D4751776E4751FFFF306D9B02A2122A1218309C52
:18507800162E161C34162E142C9B02A2122A1218309C1A321A20381AA9
:185090003218309B02162E161C349C223A22284000A2162E161C340079
:1850A800A2223A222840A22E462E344CA501009D978680A742A434A65D
:1850C00001A1383A3EA340A458A70142A434A601A1383A4CA34AA44806
:1850D800A7019DB78680A746A438A601A13E4042A344A75C00A332A787
:1850F0004A009D898681A348A760A88001A201009B02A2041C040A22E4
:185108009C0820080E260820061E9B02041C040A229C0C240C122A0C36
:18512000240A229B020820080E269C142C141A3200A20820080E2600E4
:18513800A2142C141A32A2203820263EA50100A14850545C60686C7468
:1851500000A33C2E01A12E323638A301382AA12A2E3236A2016C5E24D2
:18516800165EA15E6266A668A2685A20125AA15A5E6266A20184763CFC
:185180002E76A1767A7EA680A28072382A72A172767A7EA23866583885
:185198002058A1585C5E62A23662546CA1363C444A4E545C62A2325E45
:1851B00050324A50A15054585CA22E5C4E66A12E363C44464E545CA287
:1851C8002A58A14A505862A22654A146A001A14CA001A154A001A15E91
:1851E000A401009ED44AA1323C469B020C01019C3C4044464A010C3C21
:1851F80046500C01010C0146505A010C0C010C010000D44A14521E52E3
:1852100026522E52156DE16D5352FFFF1652316E3452FFFF1E52636E4F
:185228007452FFFF26529352FFFF2E52A24601A73CA14601464A4E50ED
:18524000A45401A25E01A754A15E015E626668A46C0100A22A01A7202E
:18525800A12A012A2E32383EA601A501A24201A338A14238322A2EA61A
:1852700001A801009B0299A2161601169C9B02121201129C9B020E0E9C
:18528800010E9C9B02121201129C009B07A21AA11A1A9C9B041A9C9B34
:1852A00006A21AA11A1A9C9B081A9C0000E34A174BB752174B00002C44
:1852B8006EDA53FFFFB75200A74AF052CA529A53BE53E16DCE53A06E72
:1852D000156DAC6E276DEB6D9854D754D754D754DE549854D754D7545D
:1852E800D754DE54FFFF3B557C6ED26D1154A06E156DAC6E276D406E49
:185300002A543B542A6D3B54406E50543B54406E61543B54406E2A5463
:185318003B542A6D3B54406E50543B54406E61543B54916E406E725482
:185330003B542A6D3B54F06D7C6EAB54946EAB548E6EBA547C6EF06D18
:18534800C254406E2A543B542A6D3B54406E50543B54406E61543B5483
:18536000406E2A543B542A6D3B54406E50543B54406E61543B54916E82
:18537800406E72543B542A6D3B54F06D7C6EAB54946EAB548E6EBA54A3
:185390007C6EE16DC254FFFF3155546E1D54A06E156DAC6E276D596EFB
:1853A8008254F354546E0855596E8254F354546E0855FFFF45551855A9
:1853C000A06E2D60AC6E1D552055FFFFC853A24E4C4A484E505254A36B
:1853D80001009B06A048469C9B0A46449C9D6800819B0644429C9B0A98
:1853F00042409C9DA800819B06A04C4A9C9B0A4A489C9D7800819B0644
:1854080048469C9B0A46449C00A25452504E5456585AA3010099A25A1C
:185420005856545A5C5E60A30100A1404401A546A701A140440146A293
:18543800014C009D9200C0A110011028011A1C011001120112040100C3
:18545000A101A25EA1015E01A95EA001A45EA20100A101A264A10164A6
:1854680001A964A001A464A20100A1404401A546A401A1014044465060
:185480004E009B1499A1323201324A013C3E01320134013426019C0021
:18549800A1049B7F029CA1049B7F029CA1049B3F029C00A1525252503E
:1854B000A301A14E01014CA30100A152525250A80100A146460146015A
:1854C8004601500150A25097A101362C249800A1109B0F0E9C00A13CB9
:1854E0003C013C013C013C0146A24697A1012C241E98009B03A13E3E98
:1854F800013E5601484A013E0140014032019C00A13232013201320178
:185510003C013C3C01A30100A501A30100A601009B02A11A1A1A159CFB
:185528001A1A151A1A1A1A1A00515551556155FFFFFE527C557C55A806
:1855400055FFFFD652596EEC55EC551556FFFFA6539DC48380A1049B89
:185558001F029C0A9B1F089C00A1109B0D0E9C10129B0F149C109B0EDE
:185570000E9C10129B07149C16A401009D8486809B02A110100110288C
:18558800011A1C01100112011204019C9B02161601162E012022011694
:1855A000011801180C019C00A11C1C011C3401262A011C9B02011E9C28
:1855B8001201222201223A012C2E01229B0201249C18011C1C011C34A9
:1855D00001262A011C9B02011E9C1201A222223AA124260126A63EA133
:1855E800260E26009B0299A1323201324A013C3E01320134013426015A
:185600009C9B0238380138500142440138013A013A2E019C00A13E3E42
:18561800013E5601484C013E014001403401444401445C014E5001444D
:18563000014601463A013E3E013E5601484C013E014001403401A24417
:18564800445CA146480148A660A14830480000F24A61566D569356002C
:1856600000E16DA756206D206DFFFF45579B6DBC56456EC7569B6DD26F
:1856780056BC56456EC7569B6DD256276EE3569B6DD256826DED56FF83
:18569000FF5F57596EF956F956546E3557596E24572457FFFF91579B5C
:1856A80010A5019CA301A10C1824303C485460A501A301009B02A26AB0
:1856C000706E74AE019C00A13A403E44A45001A80100A801A201A17895
:1856D800769B0DA078769C78A30100A16A707876A57EA80100A3019BE2
:1856F0000DA078769C78A5010099A20A01A401A601A10A0AA601A801B6
:18570800A20A0AA401A601A10AA20A01A801A20A01A401A601A10AA240
:185720000A01A80199A20A0AA401A601A10A0A0AA801A20A009AA10AC9
:18573800101816A51EA401A12018100A00366EB157406EDB579B6DB478
:185750006E0858E16DA756206D206DFFFF6156366E1458406E3E58B451
:185768006E156D9B6DBC56456EC7569B6DD256BC56456EC7569B6DD263
:1857800056276EE3569B6DD256826DED56FFFF6D56636E6B58546E9BD9
:1857980058B46E156D596EF956F956546E3557596E24572457FFFF93FC
:1857B00056A2181CA41EA301A2181CA71EA2282618A41CAE01A2181C67
:1857C800A41EA301A2181CA71EA226302EA42E01A50100A13032A4344E
:1857E000A201A1303234A601A340A13E3C484AA44CA14E01484A4C4E94
:1857F800A201A358A15654525456484A01A70100A701A178769B09A0FE
:1858100078769C00A22226A428A301A22226A728A2323022A424AE0146
:18582800A22226A428A301A22226A728A2303A38A43601A50100A13AB5
:185840003CA43EA201A13A3C3EA601A34AA148465254A456A15801528B
:18585800545658A201A34AA1605E6A6C6E606201A701009B0299A20AB6
:185870000AA8019C9B02A20606A8019C9B02A20A0A010A010AA10A0A23
:185888000A0A9C9B02A21A1A011A011AA11A1A1A1A9C009B04A10A9C24
:1858A000229B070A9C9B040A9C229B070A9C9B040A9C229B070A9C9B8D
:1858B800040A9C229B070A9C222426181A01A7010000C54AD458EE58FC
:1858D0000C590000276D786D185921591859096E2959315931593159EF
:1858E8003159FFFFD658096E18592159C36D18592959A56D3159315947
:18590000C36D3159096E3159FFFFEE58546E6E5939596159FFFF0C5958
:185918009B04A2484C54589C009B04444850549C009B044A4E565A9C6C
:18593000009B024C50565C9C0099A718A218A501A701A216A714A2144F
:18594800A501A701A214A70AA20AA501A701A20A02020102A501A70197
:18596000009B04A2049CAE0101A401A218009B0CA5019C0000B64A173F
:185978004B7F592F5A0000136E7C6E475A515A1D6E946E475A515AFAE1
:185990006D8B6E475A886E475AE66D856E475A206D7C6E136E7C6E4751
:1859A8005A515A1D6E946E475A515AFA6D8B6E475A886E475AE66D8599
:1859C0006E475A206D7C6E9B6D775A8C6D7E5A916D845A9B6D845A8459
:1859D8005A826D845A9B6D8A5A8C6D905A916D845A9B6D845A845A829F
:1859F0006D845A946E9B6D775A8C6D7E5A916D845A9B6D845A845A8286
:185A08006D845A9B6D8A5A8C6D905A916D845A9B6D845A845A826D8459
:185A20005A7C6EB96D3F5A276E965AFFFF7F595E6E6A5A9F5A596E3F81
:185A38005A965AFFFF2F5AA2181C1E14181A00A3303436A44418A3016A
:185A500000303436A44218A301303436A44018A301303436A44218A38D
:185A680001009B1899A31818A501A301189C009B0CA1242C9C009B0435
:185A8000242C9C009B04222A9C009B0C20289C009B0420289C00A201EA
:185A9800AE0CA501A701009B0899A31818011801A430A3189C0000B6E4
:185AB0004AB95AD55AB15B0000826DDF5B9B6DDF5BDF5B005C8C6D0B41
:185AC8005C0B5C0B5C7C6E0B5CFFFFB95A826D2F5C2F5C9B6D2F5C8220
:185AE0006D2F5C826D355C355C9B6D355C826D355C826D3A5C3A5C9BD6
:185AF8006D3A5C826D3A5C826D3F5C3F5C9B6D3F5C826D3F5C826D2F9E
:185B10005C9B6D2F5C8C6D2F5C826D2F5C826D355C9B6D355C8C6D3549
:185B28005C826D355C826D3A5C9B6D3A5C8C6D3A5C826D3A5C826D3F24
:185B40005C9B6D3F5C8C6D3F5C826D3F5C826D2F5C9B6D2F5C8C6D2FFB
:185B58005C826D2F5C826D355C9B6D355C8C6D355C826D355C826D3A13
:185B70005C9B6D3A5C8C6D3A5C826D3A5C826D3F5C9B6D3F5C8C6D3FAA
:185B88005C826D3F5C826D445C8C6D445C9B6D495C8C6D495C206D20FF
:185BA0006D9B6D4E5C946E4E5C206D206DFFFFD55A675D156D206D20E8
:185BB8006D206D636E5E5C726E8D5C6D6EA15C726E8D5C6D6EA15C18F6
:185BD0006D6D6E965C776EA15C186DFFFFB15BA501A3019B04A2549C97
:185BE800AE019B04A2529CAE019B04A2589CAE019B04A2569CA301005D
:185C0000A801A2015EA801A20160009B03A20208040C9C9DA283C002BC
:185C180008040C9DC283C00208040C9D8183C09B030208040C9C009B50
:185C300004A2609C009B045E9C009B04649C009B04629C009B046A9C40
:185C4800009B046C9C00A230343644A501A201423442A501010099A23A
:185C6000181C1E2CAE01A2181C1E2AAE01A21C202230AE01A21C202253
:185C78002EAE01A2262A2C3AA401A2282C2E3C9B09A4019C00A301A2AF
:185C900060646674A301A5019B03A25A605E629C00A25A605E620000A2
:185CA800D44AB25C005D2C5D0000096E6D5D136E6D5DCD6D6D5D136EC1
:185CC0006D5D876D755D096E6D5D6D5D186D246D246D2D6D096E6D5DAF
:185CD800136E6D5DCD6D6D5D136E6D5D876D865D0E6E6D5D136E6D5DB2
:185CF000CD6D6D5D246D246D0E6E985DFFFFB25C456E365D136E4D5D88
:185D0800096E6D5D136E6D5D096E6D5D2D6D2D6D096E6D5D0E6E6D5DFB
:185D2000136E6D5D2D6D2D6DFFFF005D5E6E365D675DFFFF2C5DA4182B
:185D3800A31C1EA5169B04019CA418A31C1EA5249B04019C00A460A33A
:185D50006466A4745EA36264A4726EA37274A48270A37476A484009B9F
:185D680009A5019C00AA48545660565400A101AD01A301747201747271
:185D8000A401A2747200A101AD0101A3017A78017A78A401A27A7800CB
:185D9800A001019B03A3483C9C9B03463A9C9B033E329C9B0640349CDB
:185DB000AE010000B64ABE5DC65D174B0000096ED65DFFFFBE5D0E6E4D
:185DC800205E136E4D5ECD6D5F5EFFFFC65DA301A2484C4E5C016C6CA4
:185DE000A401A201484C4E5A016A6AA401A2014C505260017070A40136
:185DF800A2014C50525E016E6EA401A201565A5C6A0176A301A2585C98
:185E10005E6C0178A301A260648482807EAE0100A2484C4E5CA701A250
:185E280078A478A2484C4E5AA701A276A476A24C505260A701A27CA4BC
:185E40007CA24C50525EA701A27AA47A00A2565A5C6AA701A282585C66
:185E58005E6CA701A284006064668C8A888684AE010000E34A895E7590
:185E70005E935E0000AA6D9B5EAF6DAD5EB46DBE5EAF6DCF5EFFFF759B
:185E88005E106D7D6D9B5EFFFF8B5E546EE05EFFFF935EA22C26201A40
:185EA000140E080402080E141A20262C002E26201A160E080402080E2E
:185EB800161A20262E003026201A180E080402080E181A202630002E7E
:185ED00026201A160E080402080E161A20262E0099A801A20102020184
:185EE800A801A501010000D44AF95E055F00000000106D7D6D195F1981
:185F00005FFFFFFB5E096E195F0E6E2B5F136E195F226E2B5FFFFF0DC0
:185F18005FA148443E38302C26201820262C30383E44004C48443E380B
:185F3000302C2620262C343E444C500000984A475F5D5F775F8B5F4FC0
:185F48006E0360C86D9D5F276EBC5FC86D9D5F206DFFFF475F4F6EF17F
:185F60005FC86DC75F276EE65F8E6EC86DC75F206D7C6EFFFF5D5F15F8
:185F78006D5E6E1560596E22605E6E1560206DFFFF775F2D603060302B
:185F9000604860306030605360FFFF8B5F9B02A222222220A401A71E07
:185FA8001CA3019C9B02A226262624A401A72220A3019C00A74846A20B
:185FC000484A4CA14E01009B02A23030302EA401A72C2AA3019C9B027F
:185FD800A234343432A401A7302EA3019C00A75250A2525456A1580176
:185FF00000A16C6A68666462605E5C5A58565452504E00A166646260FB
:186008005E5C5A58565452504E4C4A48009B1099A2180E9C9B10041C29
:186020009C009AA73230A2323436993800A501009B04A21515FF019C6D
:186038009B021515FF159C1AFF15FF9B04FF9C009B02FF1A1A9C9B0467
:18605000FF9C001A1A01151501FFFF9B04159C9B041A9C0000A74A6F3A
:186068006079607F600000096E246D276D87600000CD6D8760000077ED
:186080006E276D876000009B02A1908A827C78726A64605A524C48422F
:186098003A348E88827A76706A625E58524A46403A329C2E28221A1636
:1860B000100A02A648565C6401A260A1686EA578010000C54ACD60D90B
:1860C80060174B0000096E0360106DE360FFFFD360096E9D6EF15FFF62
:1860E000FFD360A22830363EA36E01A2602830366064666A2634A36A6B
:1860F8005C74A2524C443E3A342C2622283036A36601A25822283058B8
:186110005C60641E2CA364566EA24C443E36342C261E0000A74A2E6178
:186128003461486100005461FFFF2E618F61E3607C6E9D619661E2618A
:186140007C6E2662FFFF3461686E67626D6E6762FFFF48619D32838086
:186158009B04A2480148489C9B04440144449C9B04400140409C9B04D6
:186170003E013E3E9C9B04300130309C9B042C012C2C9C9B072E012E35
:186188002E9C2C012C2C009D6786809FE8009D4786809FE800A21018E4
:1861A0001E26A356A2585CA360A2101E28305C585C061E58A356A252B0
:1861B8004E060E141EA44EA20C161A1E545E62A366A2160C242E3C627C
:1861D0005EA762A2700A161A28A76EA27A08141A2600A22830363EA33E
:1861E8006E01A26028303601867890A28C4C4E52A356A258A45CA23E24
:186200003A343E443A40484EA34E01A2402228304044484C3034363E48
:18621800A34EA252A756A201484E56585C00A448A210181E26283036C1
:186230003E484C4E52A744A25C262C3034366E66748C262C36A776A2F4
:186248008E3C464AA34EA2160C242E3C4A46A74AA2582224282EA7568D
:18626000A262383E444A009B0499A2400140409C9B043E013E3E9C9B56
:18627800043A013A3A9C9B04300130309C9B04280128289C9B04260179
:1862900026269C9B04240124249C9B02220122229C9B02200120209C2C
:1862A8000000B64AB462D062174B00007D6D106DF262096EF262046347
:1862C0002D6DA86E7D6D475147514751206D0000F06DF262E16D946ED6
:1862D800F262136E7C6E0463226EA86E4751CD6D47510E6E4751206DD7
:1862F0000000A12E343C44464C545C2C323A4244423A3200A1383E46A8
:186308004E50565E660000D44A1963296355630000A06DC7633B6EE720
:1863200063A06D1864FFFF1963AA6D6563AA6D6563AA6D8B63AA6D65C0
:1863380063AA6D6563AA6D6563AA6D8B63AF6DA963AA6D8B63AF6DA935
:1863500063FFFF29636D6E33646D6E54646D6E5A64FFFF5563A2020E42
:18636800040C01049D9200C0020E040C01049DB200C0020E040C0104C0
:186380009D9200C0020E040C0104009B02020E040C01049C9D9200C0A4
:18639800020E040C01049DB200C0020E040C010400020E040C01049DD2
:1863B0009200C0020E040C01049D6200C09B02020E040C01049C00AE93
:1863C80001019B02A1323232323432A232AE01A801A2014AA13232A78A
:1863E00001A501AE019C00A10150545664A35EA15E6201AE01A401A15B
:1863F80068625E5CAE01A92CA001A12CA701A501A1625E5250A501011F
:18641000A401A230A1320100A12C2C2C2C2E2CA22CAE01A501A1222276
:1864280022222422A222A501AE010099AE01019B02A12E2E2E2E302E1C
:18644000A22EAE01A801A20146A12E2EA701AE01A5019C009B0CA8014D
:186458009C00A12424242426242401A501AE01A11A1A1A1A341A1A0129
:18647000A501AE010000B64A8064B464174B174B7F6E0E6EC064C0644E
:18648800136EC064D764E064E9640E6EF264136EFB641D6E0465136E64
:1864A0000D650E6E1665136E1F651D6E28654265FFFF8864206D206DB3
:1864B8002C6E4B65FFFFB864A32832303238323032009B02A228323074
:1864D00032383230329C002A32303238323032002A3632363C363236EE
:1864E800002838363840383638003238363842383638002A3632363C24
:18650000363236002E3632363C363236002E38363840383638002A3823
:18651800363842383638002C3632363E363236002836323640363236CB
:186530000030363C42484E545A58544E48403C36300030363C42484E8D
:18654800545A009B02A34A4EAE509CA54E48AE4AA401A34A4EAE50A367
:186560004E50A554A401A3464EA554A45AAE58A401A554545656585865
:1865780001010000E34A8665BA65174B0000246D7D6DCA64D764D76451
:18659000E064E064E964E964F264F264FB64FB64046504650D650D65B1
:1865A800166516651F651F65286528653165FFFF88650E6ECA64D7645D
:1865C000136ED764CD6DE064FA6DE064136EE9640E6EE964F264136E70
:1865D800F264CD6DFB640E6EFB64096E04650E6E0465136E0D65096EB2
:1865F0000D650E6E1665136E1665CD6D1F65FA6D1F652865E66D286518
:18660800CD6D3165FFFFBA6500E34A174B1B66174B0000F56D2566200E
:186620006DFFFF1B66A2020E0CA701A601A102A2020EA10C180000B699
:186638004A41664D66174B0000096E246D106D5366FFFF4766CD6DFF22
:18665000FF4766A3324658667001A32E4254626C010000C54A6D667BA9
:1866680066174B0000096E106D85669B66AB66FFFF75660E6E85668F92
:1866800066FFFF7F66A18E8C847C76746C64009B03A774019CA2747464
:18669800A40100A401A6019B02A754019CA25454A401009B03A754013B
:1866B0009CA25454A4010000C54AC266D466E66600007D6D106DF666C7
:1866C800A46E096E4567A86EFFFFC266A06DF666106DA46EBE6D1967A6
:1866E000A86EFFFFD466106D186DA46E686E0067A86EFFFFE666A18E74
:1866F8008C847C76746C64009B02A301A688A101AE010101A5019CA39D
:1867100001A688A101AE0101009D6186809B02A364686A82A501A301AA
:18672800807C6AA5019CA364686A01016864585E64A801A3686A6E70F4
:1867400088AE0101009B04A2545C4C5254524C449C9B04525848505275
:186758005860689C9B045058464C504C46409C9B0352584850525860EC
:18677000689C525848500000C54A82678A67174B0000096ED65DFFFFD8
:186788008267136E9A6EFFFF9267205E4D5E5F5EFFFF926700D44AA7EE
:1867A00067FD67D3670000106D786DDB68DB68DB68DB68DB68DB687870
:1867B8006DDB68DB687D6D9768786DDB68C468206D206D206D206DFF66
:1867D000FFA9677369686E56686D6E5668686E2568776E2568686E39B5
:1867E800686D6E6668686E73686D6E7F68776E8B68FFFFD367096EFC92
:1868000068FC68FC68FC68FC68FC68096EFC68FC689768FC680E6EC442
:1868180068096E3569786D6569FFFFFD67A35064626EA401A2016462A1
:1868300050A34E605E6CA50100A34C5C5A6AA501A34A5A5868A501A33A
:1868480048585666A501A34A5A5868A5010099A34C5C5A6AA501A34A4E
:186860005A5868A501009AA230343644484C4E5CA50100A230343642E4
:18687800484C4E5AA50100A234383A484C505260A50100A234383A4614
:186890004C50525EA501009B02A201383C383CA7019C9B02A201363CE0
:1868A800363CA7019C9B02A201383C3E46A7019C9B02A201363C3E4E68
:1868C000A7019C009B023E363E40464846449C9B0232384042484A48D6
:1868D800429C00A2444C4A4C9D2000809B03A2444C4A4C9C9B0342489B
:1868F0004A489C9D10008042484A4800A2444C4A4C9D370080444C4A23
:186908004C9D530080444C4A4C9D640080444C4A4C9D53008042484AAA
:18692000489D37008042484A489D2700809B0242484A489C00A201303B
:18693800343644484C4E60646674A401A20130343642484C4E606466E9
:1869500072A401A20134383A484C505264686A78A401A2010034383AFD
:18696800464C505264686A76A401009B18A5019C0000D44A84698E699B
:1869800098690000FF6DA2694A6EB4690000FF6DB7694A6EC96900003C
:18699800546ECC69596EDA690000A101A401A31C20A822A3012226A763
:1869B0002AA22E00AE1A00A101A401A32E30A834A3013438A73AA23E18
:1869C80000AE42009B0299A10E9AA50EA30EA6019C00A101AE1400003D
:1869E000E34AEA69F469FE6900007D6D106D086AFFFFF869876D086ABD
:1869F800126AFFFF306D186D776E1C6AFFFF306DA18078726A68605A4E
:186A10005000A1545C626A6C747A820099A254540000D44A546A2C6AD0
:186A28007C6A0000A06D9B6AA56AB06E966DA86A106D7D6D086A246DB2
:186A40002D6D966A786BA06D286B096E406B276DFFFF326A7D6D106D6A
:186A58009B6A2D6DB06E226B876D086A206D206D206D206D106D7D6DDB
:186A7000286B276D2D6D106DFFFF5C6A186D246D6D6EB06E106D675DBC
:186A8800466B156D2D6D186D246DFFFF806A9DC283C000A144484C50C0
:186AA000565C606400686E009DB18380A60164686A9D818380A23E4221
:186AB800444C52A1019DB18380A664686A9D818380A2303E444C509D67
:186AD000B1838068645A609D8183803A426450A701A2343C42484C9DF6
:186AE800B1838064686A9D818380A23E42444C529DB18380606A749D5B
:186B0000818380A2303E444C569DB18380726E729D818380A23A4248D9
:186B180050525A606878019001009B11A4019C00A11C222A30383A42BD
:186B3000485048423A38302A2218262C343E44004C5660A90100A901C7
:186B4800A301A3807C72A772A474A701A3868272A772A374A201A374A0
:186B6000A37801A2666C78A472A701A26AA47C01A201A77A8CA38A00AD
:186B78009DC283C0A3807C72A2729D72008026349DC283C0749D720030
:186B900080A13E42444C565A5C6A344250609DC283C0A3868272A2724D
:186BA8009D7200803E4C9DC283C0749D720080A1565A5C649DC283C064
:186BC000A374789D720080A14E545A609DC283C0A2666C78729D720093
:186BD80080A101525A606A72787EA3829DC283C0A26A7C9D720080A126
:186BF0002C343A42444C525A4C525A5C525A5C649DC283C0A77A8CA3C3
:186C08008A00C54A146C1E6C266C00009B6D406C2A6DFFFF226CB96D42
:186C20002E6C386C00006D6E106DFFFF206CA1525A60686A7278800053
:186C3800A301A18A900101009B02A13A4248429C0000B64A546C666C71
:186C5000174B0000E16D036DF06D036D036DE16D036DFFFF546C9B6D4B
:186C6800E96C8C6D9D6EE96C946EE96C9B6D976EE96C7C6EFFFF666CF3
:186C800000B64A8B6CA56CD36CE16CE16D036DF06D036DFF6D036D03FE
:186C98006D036D036D036DA06EFFFF475F9B6DE96C8C6D9D6EE96CEBD4
:186CB0006D946EE96C976EE96C8C6D7C6EF66CB96D9D6EF66CEB6D94EA
:186CC8006EF66C7C6EA06EFFFF5D5F206D206D206D156DA06EFFFF7786
:186CE0005F0A6DA06EFFFF8B5F9B02A1060C121A1E242A329C009B027D
:186CF800A11E242A32363C424A9C0099A20606A801009B07A5019C00D7
:186D1000A101A90100A50100A40100A501A80100A5010100A20100A695
:186D28000100A10100A00100156DFFFF306D9900FFFFFFFF000000005D
:186D4000FFFFFFFF00000000FFFF000000000000000000000000000041
:186D58009999999900000000999999990000000044444444000000004B
:186D700044444444000000009D100080009D200080009D2483C0009DF0
:186D8800468680009D8183C0009DA283C0009D918380009D5283C00061
:186DA0009D620080009D820080009D6200C0009D9200C0009DB200C000
:186DB800009DC18300009D450080009D530080009D930000009D6400DF
:186DD00080009D848680009DB48680009DE48680009D758680009DA5CC
:186DE8000080009DF58680009DA58680009DA54680009D850080009DEC
:186E0000E78680009D170080009D270080009D370080009D470080005D
:186E18009D8600C0009D660080009D870080009D480080009D3800819D
:186E3000009D488680009D480000009D580000009DA886C0009D8800D5
:186E480000009D1F0000009D5F0080009D386D20009D486D20009D4841
:186E60006D40009D586D20009D586D40009D586D60009D686D40009D38
:186E7800686D60009F00009F18009F16009F0E009F0C009F0A009F081A
:186E9000009F06009F04009F02009FD0009FFE009E984A009EA74A00E6
:106EA8009EC54A009ED44A009EE34A009EF24A00CC
:1870000000D44A0B70174B137000001D709770C0700000267097709108
:1870180070C07000009D200081A201A901009D0F7301940000D44A372C
:18703000703F70437000004D709770C070000058700000897097709129
:1870480070C07000009D200081A201A901AE01009D470080969B0AA314
:1870600074666A789C9B026E60666E70606A709C74626A747A686E74C3
:18707800706066706A5E64769B0274666A789C95009D0F7301AE0194CB
:18709000009DE17201940096A2013034A836A23034A836A2343026A731
:1870A8002CA530A301A23034A836A22C36A840A23E3AA53E01A20100BA
:1870C000A301646056A756A558A26A66646056525660A758A258A45C73
:1870D800A2014A525CA856A2014EA860A7015E706E01A401A501950049
:1870F00000D44A3F70FB70437000000771147123712371337100009D37
:18710800718280969B04A24E56645C9C9B04525866609C9B044E5664D3
:18712000609C009B02A2484E60569C9B02485260589C009B02444A5826
:18713800529C9B02444A56509C9B024048564E9C9B024046524C9C9B87
:18715000044E56645C9C950000D44A6371FB70437000006D7176717643
:18716800718A7100009D87008096A58C8C009D870080A58C8C9D370077
:18718000809B02A374666A789C009D7600809B02A4908690889C8C882D
:18719800868C90888E889D870080A58C8C0000D44A6371FB704370B17D
:1871B00071B57100009B0AA11F1F1F1FA21FA324A21FA324A11F1F1F60
:1871C8001FA324A11F1F1F1FA3249C0000D44ADF71EF714370B1716D39
:1871E000717671767137722371237133710000F7710472137200009DE3
:1871F800194540969B02A31E2C262C9C9B02223028309C9B021E2C26E3
:187210002C9C009B02A318261E26182822289C2C221A222C201A20287E
:187228001E181E281C161C9B021E2C262C9C009D6182800000D44AFB96
:18724000704772437053726D71767176717D721372000082728272820B
:1872580072827282728272827282728272827295728272957282728288
:18727000728272827282728272827200009D194540009B03A21AA9157D
:18728800AD01A915AD01A9159CA21A1A009B02A11F1F1F1FA21FA32462
:1872A000A21FA3240000E34A174BB072B6720000BA72C8720000C372DA
:1872B80000009D200041A101A001009DE1720194A26064A866A260641E
:1872D000A466A264A660A356AE6E9A9B20A5019C00013566531002469D
:1872E8008A013566531002468A00F24A174BFC720273000006732473A2
:1873000000001F7300009D200041A101A00100069BCDDEEEFFFFFE0666
:187318009BCDDEEEFFFFFE9D0F730194A13034A436A301A13034A23619
:1873300034A630A326A201A53E9B20AE019C0000D44A174B4A735473E2
:1873480000005A735A736A73FFFFBB788073FFFFBB789D810080A174AE
:18736000666A789DA60080A474009D820080A27466A66A9D850080A382
:18737800789DA60080AE74009D0C7523999B02A16A5C606EA46A9CA2A8
:187390006A5CA660A36EAE6A9B20AE019C0018984A174BA973AF730050
:1873A80000B373D1730000CC7300009D100080A301A1010046799864F6
:1873C0004310013446799864431001349DBC732099A362605852A64A66
:1873D800484A5258AB6058524AA2484A52586058524A484A52589B0257
:1873F0005E565048464850569C58504A4240424A50AB544C463EA63C68
:187408003EA3464CAA01A2509B20AE019C0000B64A217427742D740085
:18742000003374FFFFBB785874FFFFBB788C74FFFFBB789D810080A10F
:1874380001A26E9DC10080A26EA601A4019DA20080A201A3646A746A40
:18745000789DA70080AE8C009D610080A26E9DA10080A26E9DE5008050
:18746800A86E9DA20080A360666E726E829DA70080AE8600660066003A
:187480006600660066006600660066009D7C742399A164646464A8640A
:18749800A2565A5C78646A6860646E7882AE7C0000C54A174BB374CFC3
:1874B000740000D374EC74D374FE74D374FE74D374EC74D374FE74D304
:1874C800740575407500001C7500009D210080A1789D410080A1789D0D
:1874E000710080A1789DA10080A178009DA10080A2789DC30080A378E0
:1874F8009D820080A2789DD20080A378009DE30080AE7800000C000C7B
:18751000000C000C06060606060606069D0C7520999B02A186868686EE
:18752800A286A386A286A386A186868686A386A186868686A3869C9AAF
:187540009B20AE019C0000E34A174B5175597500005F757D75FFFFBB8B
:18755800787875FFFFBB789D200080A201A901008888888400000000DF
:1875700088888884000000009D68750094A2484CA84EA2484CA34E4C3A
:1875880048A001A33EA101A5560000D44A174B9D75174BAD75B575B58F
:1875A00075CB75B575B575CB75FFFFBB78E275E275FA7500009DA100FE
:1875B8008097A2369D610080A92CAD01A92CAD01A92C00A12C9DA10068
:1875D00080A1369D610080A12C2C9DA10080A23636009B02A2FFA9150D
:1875E800AD01A915AD01A9159CA115FF1515A2FFFF009B20AE019C0092
:1876000000D44A0B76177621760000277634764A765D76FFFF0D763024
:18761800764A765D76FFFF17768A76FFFF0D769D200080A101A90100BC
:187630009D602180A2016064A866A26064A866A2646056A75CA560A354
:187648000100A26064A866A25C66A870A26E6AA56E01A70100A37C786C
:187660006EA76EA570A2827E7C786E6A6E78A770A270A474A201626A76
:1876780074A86EA20166A578A201A776888601A501009D686D60A3015F
:18769000A1010000D44A9E76AE76B8760000BE76147114712371237156
:1876A8003371FFFFA0763076C7765D76FFFFAE76EB76FFFFB8769D19F7
:1876C0004240A701A20100A23034A836A22C36A840A23E3AAE3EA4016A
:1876D800A7010001379ABBBBBBA62101379ABBBBBBA6219DDB76409B95
:1876F00008A5019CA801A36A66A65CA101A75CA860A301A170016E0148
:187708006A0166015C0158015C016601A66001A260A762A301A1520173
:1877200058016201A45CA701A256A866A701A364A201A35EA201A35CF2
:18773800A401A5010000014B48774C775077547758770000A3770000A5
:18775000277800008C7800009D620000A11E2224A626A126282AA62CC3
:18776800A12C303234A336973C989D4100809B06A278A17EA2747E781E
:187780007EA178A2747E9C9D610040A670A1706CA2747070A170A26C44
:1877980074888884A78897A32C98009D810040A13E4042A644A14446D0
:1877B00048A64AA14A4E5254A456AE0197A101A24AA14AA240A130300E
:1877C80098A630A1302CA2323030A130A22C32A630A1302CA232A230C0
:1877E000974AA14AA240A1303098A636A13632A23A3636A136A2323A38
:1877F800A636A13632A23AA236974AA14AA240A1303098A610A1100C26
:18781000A2141010A110A20C1410100CA7109DA1008097A33C98009DCB
:187828000F732099A14E5254A656A156585AA65CA15C606264A4669B09
:1878400002A628A12824A22C2828A128A2242CA628A12824A22C28A643
:1878580001A3019CA630A1302CA2323030A130A22C32A630A1302CA28A
:187870003230A601A301A640A1403CA2444040A140A23C4440403CA784
:1878880040A30100A501A301FF9B06A11A15151A1515FF1A1A15151A7A
:1878A0001515FFFF9CA6FFA1FFFFA2FFFFFFA1FFA2FFFFFFFFFFA7FF46
:1878B800A3FF00C178FFFFBB789B20AE019C00CD78FFFFC7789B20AEBB
:1878D000019C0000D44ADE78E478EA780000F278FFFFDE786079FFFF3C
:1878E800E478B779BE79FFFFEC789D4282809B02A2404E5C60A401A2B2
:1879000040526062A4019CA2404E5C60A401A2404C5C5EA401A2445284
:187918006062A401A242484E5452A701A2444C5258A401A24A50565CB9
:18793000A401A2484E565CA401A2484E5658A401A2444A5258A401A25F
:18794800444C5258A401A2484E564E464C524C444A524A444A504A00EA
:187960009D5044809B02A466585CA301A260629CA36066A474A30170CA
:18797800747066A26260A45C01A201606266A46A5856A301A25C6AA411
:18799000665658A301A25856A35258A460A3015C5850A44EAE0100112C
:1879A8001111100000000011111110000000009DA77920A201009B0235
:1879C000A466585CA301A260629CA36066A77401A370747066A2626007
:1879D800A75CA401A20101606266A46A58A75601A25C6AA46656A758F8
:1879F00001A25856A35258A76001A35C5850A74EA201AE010000C54ADC
:187A0800107A247A2A7A00003E7A327A437A327A487A327A437A327AF6
:187A2000FFFF107A4D7AFFFF247AB779517AFFFF2C7A9B02AC7C7E9CE5
:187A38009B0282849C009D100000009D200000009D300000009D1A8188
:187A5000409B20A2626C76789C0000F24A657A717A174B00007B7A8745
:187A68007A167B1F7BFFFF697A827A877A1B7BFFFF757A9D420080A100
:187A800001009D81008000A501A20197A02E303E404640383032343C63
:187A9800444A443C34363840484E4840383A3C444C524C443C3E4048A6
:187AB000505650484042444C545A544C44464850585E5850484A4C546E
:187AC8005C625C544C4E5058606660585052545C646A645C549B025651
:187AE0005860686E6860585650484048509C565860686E6860586860B2
:187AF80058566058565058565048565048405048403848403E38403E6A
:187B10003830A52898009D100080009D1A81409B20AA626C76789C002E
:187B28000EB64A337B397B3F7B0000457BFFFF337B617BFFFF397B9091
:187B40007BFFFF3F7B9D6200409B20A332A23AA340A248A844A32CA225
:187B580036A33CA244A8409C009D502180AE0101A858A301A24EA352CF
:187B7000A240A544A201A352A25CA858A301A24EA352A240A544A201A5
:187B8800A340A252AE4A01009DF44B409B20A501A15C01A774A501A138
:187BA0005801A7709C0000E34AB17BB77BBD7BC37BC97BFFFFF95EE047
:187BB8007BFFFF055F067CFFFFBB781A7CFFFFC7789D80810096A1522B
:187BD0005C66606A749D800000A46E019ED44A009D408140A1424C568E
:187BE800505A649D400040A45E019ED44A00AAAAAAA800000000AAAAA1
:187C0000AAA8000000009DF67B2099A1303A443E48529AA44C019ED42F
:187C18004A009B06A11A9C9B10A0159C9ED44A0000C54A337C3B7C17CE
:187C30004B417C477C4E7CFFFF357C937CFFFF3B7CF97CFFFF417C9D67
:187C4800100080A10100AC90868E848C828A80887E8678847682748092
:187C600072AC8678847682748072AD7C7A726C6864625A5450AD6462EE
:187C78005A5450AE01AD7A72AD7A72A50101AD6264726C6264726CA5D4
:187C90000101009D390000AC90868E848C828A80887E86788476827424
:187CA80080729D200040AC86788476827480729D290000AD7C7A726C02
:187CC0006864625A54509D200040AD64625A5450AE019D290000AD7A76
:187CD800729D200040AD7A72A501019D290000AD6264726C9D200040D1
:187CF000AD6264726CA50101009B20A3389C0000C54A0A7D127D174BCB
:187D08000000287D367DFFFF0C7D337D3C7D367D417D367D467D367D81
:187D2000417D367DFFFF147D9D200043A701A101A00100A70100A120F7
:187D3800222022009D200040009D300040009D4000400000A74A567DE4
:187D50005E7D667D00006E7D847DFFFF587D7A7D847DFFFF607DF87D56
:187D6800847DFFFF687D9D100040A50101A801AA01009D200000A501D4
:187D800001A80100A18E8A88807A76727068625E5A58504A464240383A
:187D9800322E2A2E32384042464A50585A5E62687072767A80888A8E83
:187DB0008A86807876726E68605E5A56504846423E383034383E42468F
:187DC800483450565A5E6034686E727676726C64625E5A544C4A464233
:187DE0003C34322E32343C42464A4C545A5E62646C72767A7C848A00D1
:187DF8009DA77920A50101A801A3010000D44A0F7E177E1F7E277E2FF1
:187E10007E707EFFFF117E3A7E967EFFFF197E557EFE7EFFFF217E60B4
:187E28007E767FFFFF297E9D600041A701AA4EAE50009D400001A701C8
:187E4000AA64AE66008ADFDA86310136868ADFDA86310136869D457E3A
:187E580020A701AA5AAE5C00A701AA01A501A1FFA2FFFFA1FFA2FF00C2
:187E70009D4100809B07A68282A382A282A3829C9D61008097A244A6A5
:187E880044A14444A344A244A144A24498009D602141A346A73CA10178
:187EA00046464A4C50A854AA54565AAD01A85EAA5E5A56AD01A65AA1F3
:187EB80056A454A354A250A15054A456A25450A24CA14C50A454A250E1
:187ED0004CA24AA14A4EA452A3589D620040A254A654A15454A354A227
:187EE80054A154A25400001122334455678900000005000000059DEEBF
:187F00007E2099A25EA14CA2545E5C4C545CA14CA25AA14CA2545A581B
:187F18004C5458A14CA256A146A24C565A4A505AA14AA25AA14CA25431
:187F30005A5AA14C54A25AA14C545AA256A148A25056503E4850A1526B
:187F4800A254A146A24C545EA14C54A25EA15C5E60A262A152A2586255
:187F60005E52585EA158A25CA65CA15C5CA35CA25CA15CA25C009B07B7
:187F7800A115151A151515FF1515151A1515151AFF9CA2FFA6FFA1FF9B
:0A7F9000FFA3FFA2FFA1FFA2FF0064
:00000001FF
