

	　　　　　　用意して欲しいソフト一覧


　　　　　　１：		　　ウィザードリィ５

	　　２：	ドラゴンスレイヤー英雄伝説２

	　　３：	　　　　　信長の野望，覇王伝

	　　４：	　　　　　　　　　自己中心派

	　　５：		　サイレントメビウス

	　　６：		　　Ａ列車で行こう３

	　　７：			大航海時代２

	　　８：		　ブランディッシュ２

	　　９：	　　　　　　ＤＩＮＯＳＡＵＲ

	　１０：			　提督の決断

	　１１：		　あおき狼と白き牝鹿

	　１２：	　　　　　ヴェインドリーム１

	　１３：	　　　　　ヴェインドリーム２

	　１４：		　　　ポップルメイル

	　１５：		　　　東京都第２４区

	　１６：		　　　３Ｘ３ＥＹＥＳ

	　１７：　スーパーリアルマージャンＰ２＋Ｐ３


			以上１７本よろしく頼むっっっ！！！
				(マニュアルも頼むっっっ！)


	　Ｐ．Ｓ	ちなみに


		「ロボクラッシュ」をコピーしてほしい場合は

		ディスク３枚(フォーマットしといてくれい！)

				　　　を一緒に持ってきておくれ。




