
		　　敵用便利サブルーチン一覧

−−−−−−−−−−−−−−−−−−−−−−−−−−−−−−−−−

	ＥＮＢＧＣＫ	：	ＢＧチェック（補正アリ）

		Ｃ（キャリー）＝１：当たり

−−−−−−−−−−−−−−−−−−−−−−−−−−−−−−−−−

	ＥＮＭＴＣＫ	：	持ち上げチェック

		Ｃ　＝１：持ち上げられるよん

注意

		Ｃ　＝１ならＲＴＬで返す。

例
		ＪＳＬ	＞ＥＮＭＴＣＫ
		ＢＣＣ	飛び先
		ＲＴＬ

−−−−−−−−−−−−−−−−−−−−−−−−−−−−−−−−−

	ＥＮＸＣＬＣ	：	スピード計算（移動ルーチン：ＸＰＯＳ用）
	　　Ｙ		：	スピード計算（移動ルーチン：ＹＰＯＳ用）
	　　Ｚ		：	スピード計算（移動ルーチン：ＺＰＯＳ用）

−−−−−−−−−−−−−−−−−−−−−−−−−−−−−−−−−

	ＥＮＥＮＣＫ	：	敵と敵との衝突ルーチン

	ＥＮＥＮＣ１	：	敵と敵との衝突ルーチン
				（１フレーム毎にチェック）
入力
		ＬＤＹ	＃ＥＮＥＣＦ

出力

		Ｃ　＝１：他の敵と当たり

	Ｙレジスタ	：当たった敵のインデックス

−−−−−−−−−−−−−−−−−−−−−−−−−−−−−−−−−

	ＥＮＭＳＴＰ	：	ＢＧ補正ルーチン

−−−−−−−−−−−−−−−−−−−−−−−−−−−−−−−−−

	ＥＲＭＤＭＳ	：	ランダムルーチン

出力

	　　Ａレジスタ　：　００からＦＦ

−−−−−−−−−−−−−−−−−−−−−−−−−−−−−−−−−

	ＥＮＰＬＣＫ	：	敵とプレイヤーの当たり

	ＥＮＰＬＣ１	：	敵とプレイヤーの当たり
				（１フレーム毎にチェック）

		Ｃ　＝１：	当たり

−−−−−−−−−−−−−−−−−−−−−−−−−−−−−−−−−

	ＰＬＹＳＴＰ１	：	プレイヤー止まる

−−−−−−−−−−−−−−−−−−−−−−−−−−−−−−−−−

	ＥＰＳＲＣＨ	：	敵のプレイヤーサーチ

入力

	Ａレジスタ	：　基本スピード

−−−−−−−−−−−−−−−−−−−−−−−−−−−−−−−−−

	ＥＳＰＭＫＳＴ	：　　　プレイヤーのいる方向

出力

	ＥＮＭＵＫＩ	：	上０：下１：左２：右３

−−−−−−−−−−−−−−−−−−−−−−−−−−−−−−−−−

	ＥＱＳＲＣＨ	：	リターンサーチ

−−−−−−−−−−−−−−−−−−−−−−−−−−−−−−−−−

	ＰＯＨＡＮＥＭ	：	プレイヤーとオプションを跳ね返すルーチン

	Ａレジスタ	：	基本スピード

−−−−−−−−−−−−−−−−−−−−−−−−−−−−−−−−−

	ＥＭＳＲＳＴ	：	敵セット

入力

	Ａレジスタ	：	敵ナンバー

−−−−−−−−−−−−−−−−−−−−−−−−−−−−−−−−−

	ＥＮＵＴＳＴ	：	特殊ＯＡＭセット

−−−−−−−−−−−−−−−−−−−−−−−−−−−−−−−−−

その他

	ＤＷＲＫ０　から　ＤＷＲＫＦ

	ＥＮＫＡＮＦ０　から　ＥＮＫＡＮＦＦ

					ワーク用ＲＡＭ



